<?xml version="1.0" encoding="UTF-8"?>
<!DOCTYPE svg PUBLIC "-//W3C//DTD SVG 1.1//EN" "http://www.w3.org/Graphics/SVG/1.1/DTD/svg11.dtd">
<!-- Creator: CorelDRAW 2018 (64-Bit) -->
<svg xmlns="http://www.w3.org/2000/svg" xml:space="preserve" width="333px" height="210px" version="1.1" style="shape-rendering:geometricPrecision; text-rendering:geometricPrecision; image-rendering:optimizeQuality; fill-rule:evenodd; clip-rule:evenodd"
viewBox="0 0 27.44 17.32"
 xmlns:xlink="http://www.w3.org/1999/xlink">
 <defs>
  <style type="text/css">
   <![CDATA[
    .str0 {stroke:#323234;stroke-width:0.19;stroke-miterlimit:22.9256}
    .fil5 {fill:none}
    .fil8 {fill:#FEFEFE}
    .fil1 {fill:#D9DBDC}
    .fil10 {fill:#9A9A9E}
    .fil0 {fill:#323234}
    .fil9 {fill:#BE553E}
    .fil2 {fill:#E62229}
    .fil7 {fill:#291F1A}
    .fil3 {fill:#FCFCFD}
    .fil6 {fill:black}
    .fil4 {fill:white}
   ]]>
  </style>
 </defs>
 <g id="Слой_x0020_1">
  <metadata id="CorelCorpID_0Corel-Layer"/>
  <g id="_999260112">
   <g>
    <path class="fil0" d="M12.9 8.28l0.44 2.44c-2.1,-0.69 -4.62,-1.54 -7.66,-2.57 -0.35,-0.12 -0.71,-0.25 -1.08,-0.37 0.15,-0.71 0.78,-1.16 0.78,-0.82 0.17,0.32 0.92,0.24 1.24,0.38 1.08,0.48 2.86,0.14 4.6,0.36 0.92,0.12 0.87,0.02 1.68,0.58z"/>
    <g>
     <path class="fil0" d="M23.34 7.64c-0.13,0.1 -0.45,0.1 -0.6,0.06 -0.28,-0.08 -0.29,-0.18 -0.48,-0.33 -0.22,-0.19 -0.36,-0.97 -0.09,-1.12 0.08,0.1 0.08,0.53 0.44,0.91 0.15,0.16 0.18,0.18 0.36,0.3 0.05,0.04 0.36,0.18 0.37,0.18zm3.64 -0.92c-0.47,0.52 -2.75,0.91 -3.47,0.74 -1.42,-0.34 -1.24,-1.71 -0.73,-2.76 0.2,-0.42 0.25,-0.38 0.02,-0.83 -0.15,-0.28 -0.26,-0.64 0.21,-0.71 0.26,-0.04 0.59,0.12 0.72,0.34 0.22,0.4 -0.07,0.56 0.03,0.84 0.22,0.6 2.42,0.92 2.88,1.32 -0.23,-0.02 -0.51,-0.06 -0.71,-0.07 -0.1,-0.01 -0.61,-0.12 -0.64,0.01 0.22,0.14 0.93,0.14 1.21,0.2 0.13,0.02 0.49,0.12 0.58,0.19 0.17,0.15 0.22,0.52 0.05,0.57 -0.26,-0.41 -0.27,-0.52 -0.84,-0.51 -0.2,0 -1.07,0.29 -1.08,0.51 0.13,0.09 1.34,-0.71 1.67,-0.07l0.02 0.04 0.08 0.19zm-12.14 4c2.33,-0.77 5.21,-1.74 8.73,-2.94 0.18,-0.06 1.08,-0.08 1.39,-0.13 0.88,-0.12 2.28,-0.38 2.48,-1.41l-0.18 -0.36c-0.3,-0.16 -0.46,-0.38 -0.74,-0.52 -0.25,-0.13 -0.53,-0.22 -0.8,-0.31 -0.54,-0.19 -1.1,-0.33 -1.61,-0.58 -0.43,-0.21 0.31,-1.16 -0.7,-1.46 -0.25,-0.08 -0.72,-0.02 -0.88,0.22 -0.22,0.35 0.1,0.68 0.19,0.96 0.06,0.19 -0.2,0.6 -0.29,0.81 -0.16,0.36 -0.16,0.45 -0.25,0.82 -0.07,0.3 -0.37,0.36 -0.37,0.79 -0.77,1.43 -2.6,0.81 -4.85,1.09 -0.93,0.12 -0.87,0.02 -1.69,0.58l-0.43 2.44z"/>
    </g>
    <g>
     <path class="fil0" d="M4.5 7.65c-0.73,0.24 -0.56,-0.99 0.2,-1.23l0.06 -0.02c0.31,-0.1 0.47,0 0.57,0.29 -0.2,0.06 -0.33,-0.27 -0.77,0.17 -0.23,0.22 -0.17,0.46 -0.06,0.79zm-0.28 -2.42c-0.18,-0.22 -0.47,-0.24 -0.23,-0.67 0.14,-0.23 0.39,-0.45 0.65,-0.53 0.99,-0.33 0.54,0.61 0.39,1.02 -0.07,0.19 0.22,0.71 0.22,0.98 0,0.43 -0.08,0.11 -0.57,0.26 -0.59,0.19 -0.9,0.75 -0.72,1.33 -0.9,0.1 -1.4,-0.17 -2.29,-0.13 -0.29,0.01 -0.86,0 -1.14,-0.09 -0.58,-0.17 -0.1,-0.6 0.27,-0.72l0.11 -0.04c0.25,-0.07 0.71,-0.02 0.76,-0.07 -0.07,-0.16 -0.53,-0.21 -0.71,-0.2 -0.32,0.02 -0.68,0.37 -0.71,0.36 0.03,-0.16 0.32,-0.31 0.51,-0.37l0.44 -0.14 1.07 -0.25 -0.01 -0.06 -0.43 -0.02 -0.01 -0.03 2.4 -0.63zm2.33 2.16c-0.07,-0.05 -1.04,-0.48 -1.08,-0.52 -0.03,-0.04 -0.08,-0.53 -0.07,-0.59 0.14,-0.57 -0.25,-0.99 -0.17,-1.28 0.1,-0.31 0.42,-0.78 0.06,-1.07 -0.47,-0.38 -1.83,0.13 -1.47,1.18l-1.63 0.45 -0.35 0.11c-0.19,0.06 -0.43,0.16 -0.61,0.25 -0.15,0.07 -0.08,0.12 -0.24,0.13 -0.1,0.01 -0.2,0.02 -0.29,0.05 -0.52,0.19 -0.52,0.34 -0.7,0.73l0.19 0.58c0.41,0.41 1.45,0.23 2.11,0.32 0.35,0.05 0.71,0.12 1.07,0.13 0.31,0 0.31,-0.03 0.6,-0.08 0.18,-0.04 0.31,0.07 0.54,0.04 0.35,-0.05 0.75,0.01 1.06,0.21l0.98 -0.64z"/>
    </g>
   </g>
   <path class="fil1" d="M10.11 12.27c2.8,1.19 4.54,0.87 7.31,0.2l0.02 -1.5c-3.58,0.81 -4.03,0.58 -7.24,-0.2l-0.09 1.5z"/>
   <path class="fil1" d="M10.2 10.06c2.67,1.35 4.39,0.74 7.16,0.07l0.01 -1.04c-3.57,0.81 -3.96,0.77 -7.17,0l0 0.97z"/>
   <path class="fil2 str0" d="M9.33 12.22l0.11 -10.58c0,0 3.95,1.67 9.05,0.04l0 10.84 -1.07 0.2 -0.02 -1.66 -0.02 -0.99 -0.01 -0.99c0,0 -4.12,1.45 -7.14,-0.06l-0.2 3.31 -0.7 -0.11z"/>
   <path class="fil3" d="M11.27 4.89l0.29 0.38 0.37 0.02 0.25 -0.12 0.02 0.38 -0.04 0.5c-0.37,0.38 -0.56,0.7 -1.16,0.7 -0.74,0 -1.33,-0.59 -1.33,-1.33 0,-0.6 0.32,-0.79 0.7,-1.18l0.5 -0.02 0.48 0.03 -0.08 0.64zm-3.72 0l0 0.79c0,1.45 1.06,2.13 2.39,2.13l0.13 0c1.51,0 2.52,-1.2 2.52,-2.66 0,-1.06 -1.09,-1.32 -1.99,-1.32l-1.59 0c-0.77,0 -1.46,0.14 -1.46,1.06z"/>
   <path class="fil4" d="M7.8 5.39l0 0.1c0,0.63 0.36,1.34 0.72,1.63 0.44,0.37 1.07,0.5 1.83,0.56 1.58,0.11 2.48,-0.83 2.48,-2.29l0 -0.33c0,-0.5 -0.48,-0.98 -0.85,-1.14 -0.48,-0.2 -1.04,-0.32 -1.7,-0.32l-0.23 0c-1.4,0 -2.25,0.36 -2.25,1.79z"/>
   <polyline class="fil5" points="18.58,12.3 18.83,12.01 18.49,1.68 "/>
   <path class="fil6" d="M7.8 5.39c0,-1.43 0.85,-1.79 2.25,-1.79l0.23 0c0.66,0 1.22,0.12 1.7,0.32 0.37,0.16 0.85,0.64 0.85,1.14l0 0.33c0,1.46 -0.9,2.4 -2.48,2.29 -0.76,-0.06 -1.39,-0.19 -1.83,-0.56 -0.36,-0.29 -0.72,-1 -0.72,-1.63l0 -0.1zm12.44 0.1c0,1.01 -0.65,1.8 -1.46,2.01 -0.9,0.24 -2.26,0.26 -2.85,-0.28 -0.5,-0.45 -0.98,-1.72 -0.61,-2.58 0.33,-0.76 1.36,-1.04 2.44,-1.04l0.23 0c1.39,0 2.25,0.36 2.25,1.79l0 0.1zm-9.53 2.38c1.13,0 1.73,-0.47 2.08,-1.25 0.2,-0.44 0.2,-0.83 0.27,-1.39 0.02,-0.19 0.1,-0.11 0.18,-0.25 0.05,-0.08 0.05,-0.2 0.09,-0.31 0.08,-0.17 0.29,-0.31 0.52,-0.31l0.33 0c0.67,0 0.43,0.71 0.76,0.73 0.09,0.36 0.07,0.75 0.17,1.13 0.08,0.33 0.23,0.63 0.41,0.88 0.37,0.5 0.96,0.77 1.81,0.77l0.56 0c1.01,0 1.93,-0.48 2.25,-1.16 0.11,-0.25 0.33,-1.16 0.42,-1.26 0.24,-0.28 0.08,-0.76 0.77,-0.92l-0.04 -0.83c-0.44,0 -1.08,-0.25 -1.51,-0.36 -0.48,-0.12 -1.07,-0.23 -1.66,-0.23l-0.4 0c-0.63,0 -1.47,0.12 -1.96,0.28 -0.72,0.25 -0.77,0.51 -1.74,0.51l-0.07 0c-1.02,0 -0.94,-0.3 -1.7,-0.52 -0.56,-0.15 -1.24,-0.27 -1.94,-0.27l-0.46 0c-0.6,0 -1.1,0.13 -1.59,0.23 -0.4,0.07 -1.06,0.36 -1.42,0.36l-0.1 0 -0.04 0.83c0.69,0.16 0.53,0.61 0.79,0.94 0.14,0.19 0.23,0.93 0.42,1.26 0.4,0.69 1.18,1.14 2.24,1.14l0.56 0z"/>
   <path class="fil4" d="M20.22 5.39l0 0.1c0,0.63 -0.36,1.34 -0.72,1.63 -0.44,0.37 -1.07,0.5 -1.83,0.56 -1.58,0.11 -2.48,-0.83 -2.48,-2.29l0 -0.33c0,-0.5 0.48,-0.98 0.85,-1.14 0.48,-0.2 1.04,-0.32 1.7,-0.32l0.23 0c1.4,0 2.25,0.36 2.25,1.79z"/>
   <circle class="fil0 str0" cx="10.62" cy="5.86" r="1.12"/>
   <circle class="fil0 str0" cx="17.44" cy="5.86" r="1.12"/>
   <path class="fil7" d="M10.2 10.86c2.67,1.35 4.43,0.8 7.19,0.13l-0.02 -0.93c-3.57,0.82 -3.96,0.78 -7.17,0l0 0.8z"/>
   <ellipse class="fil8 str0" cx="11.09" cy="5.28" rx="0.31" ry="0.33"/>
   <ellipse class="fil8 str0" cx="17.97" cy="5.28" rx="0.31" ry="0.33"/>
   <ellipse class="fil8 str0" cx="11.43" cy="5.77" rx="0.21" ry="0.22"/>
   <ellipse class="fil8 str0" cx="18.28" cy="5.77" rx="0.21" ry="0.22"/>
   <path class="fil5 str0" d="M18.49 1.68c0,0 -0.23,-0.75 -0.94,-1.02m-8.11 0.99c0,0 -0.01,-0.58 0.59,-0.88 0.04,-0.02 0.07,-0.04 0.11,-0.05m3.75 -0.61c1.69,0 3.13,0.23 3.66,0.55 0.12,0.06 0.19,0.14 0.21,0.21 0.01,0.02 0.01,0.04 0.01,0.06 0,0.44 -1.73,0.81 -3.88,0.81 -2.14,0 -3.88,-0.37 -3.88,-0.81 0,-0.02 0.01,-0.04 0.01,-0.05 0.01,-0.05 0.04,-0.09 0.09,-0.13 0.39,-0.37 1.94,-0.64 3.78,-0.64z"/>
   <path class="fil5 str0" d="M9.53 12.24l0.01 3.66c0,0 3.09,2.9 8.73,0.1l0.03 -3.41"/>
   <polyline class="fil5 str0" points="10.23,9.02 9.79,8.89 9.67,12.29 "/>
   <polyline class="fil5 str0" points="17.37,9.08 17.82,8.96 17.96,12.66 "/>
   <path class="fil5 str0" d="M10.03 12.33l-0.08 2.69c0,0 2.86,2.68 7.82,-0.1l0.13 -0.11 0 -2.18m-7.29 2.85c0,0 2.57,-1.37 6.41,-0.17m-7.05 -0.61c0,0 2.79,-1.73 7.93,-0.22"/>
   <path class="fil5 str0" d="M17.38 12.45c0,0 -4.22,1.44 -7.31,-0.2"/>
   <path class="fil5 str0" d="M10.2 10.06c0,0 3.31,1.38 7.17,0"/>
   <path class="fil5 str0" d="M10.14 10.85c0,0 2.52,1.69 7.3,0.12"/>
   <polygon class="fil9 str0" points="10.14,10.85 10.2,9.67 10.2,9.5 10.22,9.09 10.23,9.02 9.79,8.89 9.77,9.53 9.67,12.25 10.07,12.26 10.08,12.08 "/>
   <polygon class="fil9 str0" points="17.38,10.07 17.4,10.98 17.4,10.98 17.4,11.06 17.42,12.28 17.42,12.58 17.92,12.58 17.85,9.72 17.82,8.96 17.37,9.08 17.37,9.09 17.37,9.23 17.38,9.87 "/>
   <path class="fil10 str0" d="M9.97 14.7l-0.02 0.32c0,0 0.4,0.35 0.66,0.46 0,0 2.71,-1.4 6.35,-0.14l0.88 -0.48 0.09 -0.07 -0.03 -0.33c0,0 -4.2,-1.43 -7.93,0.24z"/>
   <path class="fil1 str0" d="M9.53 12.24l0.5 0.03 -0.08 2.75c0,0 3.48,2.73 7.95,-0.21l0.02 -2.23 0.38 0.01 -0.03 3.41c0,0 -4.92,2.7 -8.73,-0.1l-0.01 -3.66z"/>
   <path class="fil9 str0" d="M18.49 1.68c0,0 -4.53,1.68 -9.05,-0.03 0,0 0.02,-0.68 0.62,-0.84 0,0 -0.29,0.56 1.97,0.83 2.27,0.26 4.9,0.01 5.61,-0.5 0,0 0.29,-0.24 0.04,-0.39 0,0 0.55,0.17 0.81,0.93z"/>
   <path class="fil2 str0" d="M13.89 1.74c1.38,0 2.59,-0.15 3.28,-0.38 0.2,-0.07 0.36,-0.14 0.47,-0.22 0,0 0.1,-0.09 0.13,-0.19 0,-0.01 0,-0.02 0,-0.02 0,-0.02 0,-0.04 -0.01,-0.06 -0.01,-0.04 -0.04,-0.08 -0.08,-0.12 -0.04,-0.03 -0.08,-0.06 -0.13,-0.09 -0.53,-0.32 -1.97,-0.55 -3.66,-0.55 -1.8,0 -3.31,0.26 -3.75,0.61 -0.01,0.01 -0.02,0.02 -0.03,0.03 -0.02,0.01 -0.04,0.03 -0.05,0.06 0,0 -0.29,0.56 1.97,0.83 0,0 0,0 0.01,0 0.55,0.06 1.18,0.1 1.85,0.1z"/>
   <ellipse class="fil8 str0" cx="13.91" cy="0.72" rx="2.73" ry="0.62"/>
  </g>
 </g>
</svg>
