<?xml version="1.0" encoding="UTF-8"?>
<!DOCTYPE svg PUBLIC "-//W3C//DTD SVG 1.1//EN" "http://www.w3.org/Graphics/SVG/1.1/DTD/svg11.dtd">
<!-- Creator: CorelDRAW 2018 (64-Bit) -->
<svg xmlns="http://www.w3.org/2000/svg" xml:space="preserve" width="417px" height="409px" version="1.1" style="shape-rendering:geometricPrecision; text-rendering:geometricPrecision; image-rendering:optimizeQuality; fill-rule:evenodd; clip-rule:evenodd"
viewBox="0 0 80.82 79.18"
 xmlns:xlink="http://www.w3.org/1999/xlink">
 <defs>
  <style type="text/css">
   <![CDATA[
    .fil2 {fill:#323234}
    .fil1 {fill:#52A8A3}
    .fil0 {fill:white}
   ]]>
  </style>
 </defs>
 <g id="Слой_x0020_1">
  <metadata id="CorelCorpID_0Corel-Layer"/>
  <path class="fil0" d="M52.02 26.41c2.27,-2.53 3.66,-5.93 3.66,-9.72 0,-8.72 -7.2,-15.66 -16.03,-15.28 -7.45,0.38 -13.76,6.31 -14.39,13.89 -0.38,4.17 1,8.08 3.41,10.99 3.28,3.91 5.17,8.83 5.17,13.89l0 7.7 -3.91 0 0 8.33 20.96 0 0 -8.33 -3.91 0 0 -7.2c-0.01,-5.19 1.64,-10.36 5.04,-14.27z"/>
  <path class="fil1" d="M71.97 56.08l-63.14 0c-4.17,0 -7.58,3.4 -7.58,7.58l0 10.35 4.43 0c0,2.77 2.27,5.17 5.17,5.17l59.09 0c2.77,0 5.18,-2.27 5.18,-5.17l4.42 0 0 -6.31 0 -4.04c0,-4.18 -3.41,-7.58 -7.57,-7.58z"/>
  <path class="fil2" d="M71.97 54.82l-19.83 0 0 -8.33 -23.47 0 0 8.33 -19.84 0c-4.79,0 -8.83,3.91 -8.83,8.84l0 10.35c0,0.75 0.5,1.26 1.27,1.26l78.28 0c0.76,0 1.27,-0.5 1.27,-1.26l0 -10.35c-0.01,-4.93 -3.92,-8.84 -8.85,-8.84zm-40.78 -5.69l18.43 0 0 5.68 -18.43 0 0 -5.68zm47.1 23.61l-75.77 0 0 -9.1c0,-3.4 2.77,-6.31 6.31,-6.31l63.13 0c3.41,0 6.31,2.77 6.31,6.31l0 9.1 0.02 0z"/>
  <path class="fil2" d="M32.57 40.17l0 3.4 2.53 0 0 -3.4c0,-5.31 -1.89,-10.36 -5.56,-14.78 -2.27,-2.77 -3.41,-6.44 -3.16,-10.1 0.64,-6.95 6.31,-12.37 13.26,-12.62 3.91,-0.14 7.58,1.13 10.35,3.79 2.77,2.65 4.29,6.31 4.29,10.1 0,3.28 -1.13,6.56 -3.41,9.09 -3.4,3.91 -5.3,9.35 -5.3,15.03l0 2.91 2.52 0 0 -2.91c0,-5.18 1.64,-9.85 4.67,-13.39 2.52,-3.04 4.04,-6.81 4.04,-10.73 0,-4.55 -1.77,-8.84 -5.05,-11.99 -3.29,-3.16 -7.58,-4.8 -12.12,-4.54 -8.22,0.5 -14.9,6.94 -15.66,15.14 -0.39,4.29 0.88,8.58 3.65,11.99 3.18,3.92 4.95,8.46 4.95,13.01z"/>
  <rect class="fil2" x="32.46" y="63.77" width="2.52" height="2.52"/>
  <rect class="fil2" x="39.14" y="63.77" width="2.52" height="2.52"/>
  <rect class="fil2" x="45.83" y="63.77" width="2.52" height="2.52"/>
 </g>
</svg>
