<?xml version="1.0" encoding="UTF-8"?>
<!DOCTYPE svg PUBLIC "-//W3C//DTD SVG 1.1//EN" "http://www.w3.org/Graphics/SVG/1.1/DTD/svg11.dtd">
<!-- Creator: CorelDRAW 2018 (64-Bit) -->
<svg xmlns="http://www.w3.org/2000/svg" xml:space="preserve" width="152px" height="173px" version="1.1" style="shape-rendering:geometricPrecision; text-rendering:geometricPrecision; image-rendering:optimizeQuality; fill-rule:evenodd; clip-rule:evenodd"
viewBox="0 0 78.84 89.7"
 xmlns:xlink="http://www.w3.org/1999/xlink">
 <defs>
  <style type="text/css">
   <![CDATA[
    .fil0 {fill:#52A8A3}
   ]]>
  </style>
 </defs>
 <g id="Слой_x0020_1">
  <metadata id="CorelCorpID_0Corel-Layer"/>
  <path class="fil0" d="M78.57 43.68l-10.52 -21.03c-0.51,-0.89 -1.22,-1.45 -2.35,-1.45l-52.56 0c-1.1,0 -1.83,0.54 -2.35,1.45l-10.51 21.03c-0.49,1.03 -0.32,2.07 0.37,2.9l36.79 42.22c0.5,0.57 1.22,0.9 1.98,0.9 0.76,0 1.48,-0.33 1.98,-0.9l36.8 -42.22c0.68,-0.83 0.86,-1.87 0.37,-2.9zm-17.12 -17.22l-6.71 13.41 -10.06 -13.41 16.77 0zm-11.52 15.76l-21.02 0 10.51 -14.01 10.51 14.01zm-15.76 -15.76l-10.07 13.41 -6.71 -13.41 16.78 0zm-21.03 3.24l6.26 12.52 -12.52 0 6.26 -12.52zm-4.73 17.78l13.51 0 12.95 30.38 -26.46 -30.38zm31.01 27.64l-11.79 -27.64 23.58 0 -11.79 27.64zm4.55 2.74l12.96 -30.38 13.51 0 -26.47 30.38zm15.47 -35.64l6.26 -12.52 6.26 12.52 -12.52 0z"/>
  <path class="fil0" d="M39.42 0c-1.45,0 -2.63,1.18 -2.63,2.63l0 5.43c0,1.45 1.18,2.63 2.63,2.63 1.45,0 2.63,-1.18 2.63,-2.63l0 -5.43c0,-1.45 -1.18,-2.63 -2.63,-2.63z"/>
  <path class="fil0" d="M28.27 11.59l-3.71 -3.72c-1.03,-1.02 -2.69,-1.02 -3.72,0 -1.03,1.03 -1.03,2.69 0,3.72l3.72 3.72c1.02,1.02 2.69,1.02 3.71,0 1.03,-1.03 1.03,-2.69 0,-3.72z"/>
  <path class="fil0" d="M58 7.87c-1.02,-1.02 -2.69,-1.02 -3.71,0l-3.72 3.72c-1.02,1.03 -1.02,2.69 0,3.72 1.03,1.02 2.69,1.02 3.72,0l3.71 -3.72c1.03,-1.03 1.03,-2.69 0,-3.72z"/>
 </g>
</svg>
