<?xml version="1.0" encoding="UTF-8"?>
<!DOCTYPE svg PUBLIC "-//W3C//DTD SVG 1.1//EN" "http://www.w3.org/Graphics/SVG/1.1/DTD/svg11.dtd">
<!-- Creator: CorelDRAW 2018 (64-Bit) -->
<svg xmlns="http://www.w3.org/2000/svg" xml:space="preserve" width="427px" height="427px" version="1.1" style="shape-rendering:geometricPrecision; text-rendering:geometricPrecision; image-rendering:optimizeQuality; fill-rule:evenodd; clip-rule:evenodd"
viewBox="0 0 486.35 486.35"
 xmlns:xlink="http://www.w3.org/1999/xlink">
 <defs>
  <font id="FontID0" horiz-adv-x="666" font-variant="normal" class="str2" style="fill-rule:nonzero" font-weight="400">
	<font-face 
		font-family="Calligraph">
		<font-face-src>
			<font-face-name name="Arial"/>
		</font-face-src>
	</font-face>
   <missing-glyph><path d="M0 0z"/></missing-glyph>
   <glyph unicode="R" horiz-adv-x="722" d="M79.0014 0l0 715.972 317.313 0c63.8314,0 112.334,-6.49795 145.496,-19.3351 33.1738,-12.8249 59.6664,-35.4945 79.5022,-67.9965 19.8359,-32.4898 29.6683,-68.4972 29.6683,-107.827 0,-50.8355 -16.5014,-93.6585 -49.3332,-128.493 -32.8318,-34.8349 -83.4963,-56.8327 -152.165,-66.3353 25.1613,-11.9943 44.1665,-24.0009 57.1625,-35.6655 27.6652,-25.3323 53.8402,-57.1625 78.3297,-95.3318l123.828 -194.987 -118.319 0 -94.6723 148.989c-27.4942,43.165 -50.3225,76.009 -68.1552,98.8373 -18.0037,22.8283 -34.0043,38.6579 -48.1728,47.8308 -13.9975,9.00187 -28.4957,15.3288 -43.165,18.9931 -10.663,2.17413 -28.1659,3.33448 -52.6554,3.33448l-109.671 0 0 -317.984 -94.9898 0zm94.9898 399.991l203.33 0c43.336,0 76.9983,4.49483 101.329,13.4967 24.3307,8.83087 42.8352,23.1581 55.3303,42.994 12.6661,19.6649 19.0053,41.0031 19.0053,64.1612 0,33.8333 -12.1776,61.8405 -36.667,83.6673 -24.5017,21.839 -63.1718,32.673 -115.998,32.673l-226.329 0 0 -236.992z"/>
  </font>
  <style type="text/css">
   <![CDATA[
    @font-face { font-family:"Calligraph";font-variant:normal;font-weight:normal;src:url("#FontID0") format(svg)}
    .str2 {stroke-width:9.31;stroke-miterlimit:22.9256}
    .str0 {stroke:#52A8A3;stroke-width:13.46;stroke-miterlimit:22.9256}
    .str1 {stroke:#323234;stroke-width:5.39;stroke-miterlimit:22.9256}
    .str3 {stroke:#323234;stroke-width:1.03;stroke-miterlimit:22.9256}
    .fil1 {fill:none}
    .fil2 {fill:#323234}
    .fil0 {fill:white}
    .fnt0 {font-weight:normal;font-size:110.24px;font-family:'Calligraph'}
   ]]>
  </style>
 </defs>
 <g id="Слой_x0020_1">
  <metadata id="CorelCorpID_0Corel-Layer"/>
  <path class="fil0 str0" d="M95.12 6.73l296.11 0c48.61,0 88.38,39.78 88.38,88.39l0 296.11c0,48.61 -39.77,88.38 -88.38,88.38l-296.11 0c-48.61,0 -88.39,-39.77 -88.39,-88.38l0 -296.11c0,-48.61 39.78,-88.39 88.39,-88.39z"/>
  <path class="fil1 str1" d="M243.88 139.35c0,0 11.11,29.64 55.98,24 20.83,-2.62 40.81,-13.32 74.12,-8.15 28.39,5.89 43.35,19.21 43.55,41.93 0,0 34.9,13.24 33.24,46.94 -1.66,33.71 -34.9,46.95 -34.9,46.95 0,0 0,56.58 -94.72,37.32 -44.87,-10.23 -60.66,-9.63 -78.11,18.66 0,0 -15.57,-29.12 -51.31,-24.3 -35.73,6.01 -66.67,21.89 -99.91,3.83 0,0 -24.1,-10.83 -22.44,-36.11 -46.53,-18.06 -44.04,-81.86 0.83,-93.9 0,0 0.42,-43.63 59,-43.93 25.76,-0.3 47.78,12.03 71.04,9.93 23.27,-2.11 37.81,-13.54 43.63,-23.17z"/>
  <g transform="matrix(0.948665 0 0 1 -35.0659 -4176.61)">
   <text x="213.5" y="4455.44"  class="fil2 str3 fnt0">R</text>
   <text x="285.39" y="4455.44"  class="fil2 str3 fnt0">R</text>
  </g>
  <path class="fil2" d="M332.91 208.7c-1.4,-2.93 -1.66,-5.33 0.9,-7.03 1.78,-1.18 3.2,-0.39 4.51,1.3 5.24,6.7 20.13,29.63 23.73,27.25 1.87,-1.24 -1.75,-7.24 -2.88,-9.29 -1.53,-2.79 -3.1,-5.84 -4.07,-8.34 -1.79,-4.63 -9.26,-14.16 -4.81,-17.11l0.54 -0.36c5.46,-3.62 18.04,26.64 20.54,31.31 0.08,0.83 1.85,1.11 2.88,0.43l0.53 -0.36c2.77,-1.83 -1.62,-27.28 1.26,-29.19l1.08 -0.71c1.25,-0.83 2.7,-0.49 3.49,0.83l1.01 1.7c1.41,2.36 2.11,16.21 2.14,19.37 0.08,7.63 1.61,12.03 6.69,20.47 5.52,9.17 4.85,12.95 6.27,20.36 1.02,5.36 -4.56,12.37 -10.01,15.98 -8.93,5.92 -19.92,8.06 -28.07,8.9 -5.19,0.53 -7.45,-0.3 -13.22,1.76 -4.32,1.53 -9.76,3.99 -14.05,5.55l-1.01 -1.7c-4.06,-6.8 9.29,-13.41 15.27,-15.47 4.02,-1.38 7.51,-2.28 7.62,-7.08 0.07,-3.26 -0.59,-7.71 -2.73,-11.29l-1.68 -2.82c-6.53,-10.95 -20.41,-16.67 -26.36,-26.64l-1.01 -1.7c-1.53,-2.57 -1.25,-3.9 1.19,-5.51l0.54 -0.36c3.47,-2.3 25.65,21.59 28.82,19.5l1.52 -1 -20.63 -28.75z"/>
  <path class="fil2" d="M153.44 208.7c1.39,-2.93 1.66,-5.33 -0.91,-7.03 -1.78,-1.18 -3.19,-0.39 -4.51,1.3 -5.23,6.7 -20.12,29.63 -23.73,27.25 -1.86,-1.24 1.75,-7.24 2.89,-9.29 1.53,-2.79 3.1,-5.84 4.07,-8.34 1.78,-4.63 9.26,-14.16 4.81,-17.11l-0.54 -0.36c-5.47,-3.62 -18.04,26.64 -20.54,31.31 -0.08,0.83 -1.85,1.11 -2.88,0.43l-0.53 -0.36c-2.77,-1.83 1.61,-27.28 -1.27,-29.19l-1.07 -0.71c-1.25,-0.83 -2.7,-0.49 -3.49,0.83l-1.01 1.7c-1.41,2.36 -2.11,16.21 -2.14,19.37 -0.08,7.63 -1.61,12.03 -6.69,20.47 -5.52,9.17 -4.86,12.95 -6.27,20.36 -1.03,5.36 4.55,12.37 10,15.98 8.94,5.92 19.93,8.06 28.07,8.9 5.2,0.53 7.46,-0.3 13.23,1.76 4.32,1.53 9.76,3.99 14.04,5.55l1.01 -1.7c4.06,-6.8 -9.28,-13.41 -15.27,-15.47 -4.01,-1.38 -7.5,-2.28 -7.61,-7.08 -0.08,-3.26 0.59,-7.71 2.73,-11.29l1.68 -2.82c6.53,-10.95 20.41,-16.67 26.36,-26.64l1.01 -1.7c1.53,-2.57 1.24,-3.9 -1.19,-5.51l-0.54 -0.36c-3.48,-2.3 -25.66,21.59 -28.82,19.5l-1.52 -1 20.63 -28.75z"/>
 </g>
</svg>
