<?xml version="1.0" encoding="UTF-8"?>
<!DOCTYPE svg PUBLIC "-//W3C//DTD SVG 1.1//EN" "http://www.w3.org/Graphics/SVG/1.1/DTD/svg11.dtd">
<!-- Creator: CorelDRAW 2018 (64-Bit) -->
<svg xmlns="http://www.w3.org/2000/svg" xml:space="preserve" width="427px" height="427px" version="1.1" style="shape-rendering:geometricPrecision; text-rendering:geometricPrecision; image-rendering:optimizeQuality; fill-rule:evenodd; clip-rule:evenodd"
viewBox="0 0 1357.39 1357.39"
 xmlns:xlink="http://www.w3.org/1999/xlink">
 <defs>
  <font id="FontID0" horiz-adv-x="578" font-variant="normal" class="str1" style="fill-rule:nonzero" font-weight="400">
	<font-face 
		font-family="Calibri">
		<font-face-src>
			<font-face-name name="Calibri"/>
		</font-face-src>
	</font-face>
   <missing-glyph><path d="M0 0z"/></missing-glyph>
   <glyph unicode=" " horiz-adv-x="225" d=""/>
   <glyph unicode="." horiz-adv-x="252" d="M178.995 53.6664c0,-23.1628 -3.83077,-38.5037 -11.4923,-46.1652 -7.67936,-7.66154 -21.5058,-11.4923 -41.6752,-11.4923 -19.6706,0 -33.1584,3.83077 -40.6596,11.332 -7.50118,7.50118 -11.1716,22.4857 -11.1716,44.9893 0,23.1628 3.83077,38.5037 11.5101,46.1652 7.66154,7.66154 21.488,11.5101 41.6574,11.5101 19.6706,0 33.1763,-3.67041 40.6596,-11.1716 7.34083,-7.50118 11.1716,-22.6639 11.1716,-45.1675z"/>
   <glyph unicode="О" horiz-adv-x="662" d="M612.995 323.335c0,-51.172 -6.00451,-97.1768 -17.9957,-138.175 -12.1694,-40.9982 -30.1651,-75.8314 -54.005,-104.66 -24.0002,-28.6684 -54.005,-50.8334 -90.1567,-66.3347 -36.1696,-15.5013 -78.3437,-23.1628 -126.505,-23.1628 -47.5016,0 -88.4997,7.00229 -123.173,21.1672 -34.8333,14.1649 -63.3235,34.8333 -85.9874,61.8269 -22.6817,27.0114 -39.5015,60.5084 -50.5127,100.509 -11.1538,40.0004 -16.6594,85.9874 -16.6594,137.997 0,49.8357 6.00451,95.1635 17.9957,135.823 12.1694,40.6774 30.1651,75.1722 54.3435,103.662 24.0002,28.3477 54.1653,50.3345 90.3171,65.8358 36.0092,15.5013 78.1655,23.1628 126.505,23.1628 46.5038,0 87.003,-6.98447 121.498,-20.9891 34.4948,-14.0046 63.3413,-34.3344 86.1656,-61.1676 23.0024,-26.8332 40.1785,-59.9916 51.3323,-99.6713 11.1716,-39.5015 16.8376,-84.8293 16.8376,-135.823zm-88.9986 -5.84415c0,35.6707 -3.17152,69.0073 -9.49675,99.6713 -6.34304,30.664 -16.8376,57.3368 -31.6618,80.0007 -14.842,22.5035 -34.5126,40.1607 -59.172,52.829 -24.8376,12.6683 -55.3413,19.0113 -91.6712,19.0113 -36.4903,0 -66.9939,-6.84193 -91.6712,-20.508 -24.6595,-13.6661 -44.8289,-31.8399 -60.152,-54.5038 -15.5013,-22.8243 -26.5125,-49.3368 -33.1763,-79.8226 -6.66376,-30.3433 -9.99564,-62.1654 -9.99564,-95.6802 0,-37.1496 3.17152,-71.1632 9.33639,-102.326 6.16487,-31.3232 16.499,-58.1564 31.1629,-80.8382 14.5035,-22.4857 34.174,-40.0004 58.6732,-52.4905 24.4991,-12.5079 55.3235,-18.8331 92.3305,-18.8331 36.8289,0 67.6532,6.82412 92.669,20.4902 24.998,13.6839 45.1496,32.0003 60.4905,55.3413 15.1627,23.1628 26.174,50.1742 32.6595,80.66 6.5034,30.5036 9.67492,62.8425 9.67492,96.9987z"/>
   <glyph unicode="Я" horiz-adv-x="555" d="M472.004 12.1694c0,-2.67263 -0.677066,-4.82855 -2.01338,-6.66376 -1.33632,-1.67485 -3.49224,-3.33188 -6.82412,-4.66819 -3.17152,-1.17596 -7.50118,-2.17374 -12.8286,-2.83299 -5.50562,-0.677066 -12.1694,-0.997782 -20.3476,-0.997782 -8.16043,0 -14.8242,0.320716 -20.3298,0.997782 -5.32744,0.659249 -9.49675,1.65703 -12.6683,2.83299 -2.99335,1.33632 -5.32744,2.99335 -6.82412,4.66819 -1.49667,1.83521 -2.17374,3.99113 -2.17374,6.66376l0 263.824 -63.1632 0c-25.4969,0 -45.0071,-2.65481 -58.495,-7.8219 -13.5057,-5.16709 -25.3365,-12.8464 -35.1718,-22.6817 -9.99564,-9.99564 -18.4946,-21.9868 -25.4969,-35.9914 -7.00229,-14.0046 -13.8442,-29.6662 -20.3298,-46.8245l-54.3435 -145.676c-1.65703,-3.83077 -3.33188,-7.16265 -5.16709,-9.65711 -1.65703,-2.67263 -4.32966,-4.66819 -8.00007,-6.18269 -3.49224,-1.49667 -8.00007,-2.49446 -13.3275,-3.1537 -5.32744,-0.677066 -12.3297,-0.997782 -20.6683,-0.997782 -9.49675,0 -16.8376,0.320716 -22.3254,1.15814 -5.66598,0.837424 -9.83528,1.99556 -13.0068,3.17152 -2.99335,1.33632 -5.00673,2.99335 -6.00451,4.66819 -0.997782,1.83521 -1.49667,3.99113 -1.49667,6.66376 0,3.17152 0.498891,7.00229 1.49667,11.4923 0.997782,4.34748 3.33188,11.5101 7.34083,21.1672l51.6709 134.505c6.16487,16.1605 12.6505,30.8243 19.4924,43.9915 6.84193,13.0068 14.1649,24.4991 22.0047,34.3344 7.8219,10.0135 16.3209,18.5124 25.3365,25.5147 9.15821,6.98447 19.332,12.4901 30.3254,16.8198 -19.4924,4.84637 -37.1674,11.6705 -52.829,20.1695 -15.6794,8.67714 -28.8288,19.5102 -39.5015,32.3388 -10.8331,12.8286 -19.0113,27.4925 -24.8376,44.1697 -5.66598,16.499 -8.49897,34.9936 -8.49897,55.1631 0,25.9958 4.32966,49.996 13.1672,72.0007 8.8375,21.9868 22.165,40.9982 40.1607,56.8201 17.8354,16.0001 40.4993,28.5081 67.671,37.3456 27.1717,8.99786 65.8358,13.4879 115.671,13.4879l130.995 0c7.83972,0 15.0024,-2.49446 21.5058,-7.50118 6.48558,-5.16709 9.83528,-13.9868 9.83528,-26.655l0 -585.662zm-84.0097 550.829l-80.1611 0c-33.3366,0 -58.495,-2.67263 -75.3325,-8.00007 -16.9979,-5.50562 -30.8422,-13.0068 -41.3367,-22.5035 -10.6727,-9.67492 -18.3342,-21.0069 -23.0024,-34.3344 -4.82855,-13.1672 -7.16265,-27.3321 -7.16265,-42.673 0,-15.3231 2.49446,-29.6662 7.66154,-42.9937 5.00673,-13.3275 12.8464,-25.1584 23.6795,-35.1718 10.6549,-10.156 24.6595,-17.9957 41.8178,-23.822 17.1761,-5.66598 40.8378,-8.49897 71.1811,-8.49897l82.6556 0 0 217.998z"/>
   <glyph unicode="а" horiz-adv-x="478" d="M405.99 11.6705c0,-3.83077 -1.3185,-6.84193 -3.83077,-8.8375 -2.65481,-1.99556 -6.16487,-3.33188 -10.8331,-4.32966 -4.49002,-0.997782 -11.1716,-1.49667 -19.9913,-1.49667 -8.33861,0 -15.1805,0.498891 -20.1695,1.49667 -5.00673,0.997782 -8.67714,2.3341 -10.9934,4.32966 -2.3341,1.99556 -3.51005,4.82855 -3.51005,8.8375l0 43.9915c-19.1717,-20.4902 -40.4993,-36.4903 -64.161,-47.8223 -23.6617,-11.1716 -48.6775,-16.8376 -75.0118,-16.8376 -23.1628,0 -44.1519,2.99335 -62.8246,8.99786 -18.6728,6.00451 -34.6729,14.842 -47.8401,26.174 -13.1672,11.332 -23.4835,25.4969 -30.8243,41.9959 -7.34083,16.6594 -10.9934,35.4925 -10.9934,56.6598 0,24.8376 4.98891,46.3434 15.1627,64.4995 9.99564,18.3342 24.4991,33.497 43.4926,45.506 18.8331,11.9912 41.9959,21.1672 69.328,27.1539 27.3499,6.00451 58.1743,9.01567 92.3483,9.01567l60.6509 0 0 34.3344c0,16.8198 -1.81739,31.8221 -5.32744,44.9893 -3.67041,13.0068 -9.33639,23.8399 -17.3365,32.4992 -8.00007,8.67714 -18.3342,15.1627 -31.0025,19.5102 -12.6505,4.49002 -28.3299,6.66376 -46.8245,6.66376 -19.8309,0 -37.6663,-2.3341 -53.3279,-7.18047 -15.8398,-4.82855 -29.6662,-9.99564 -41.497,-15.822 -11.8487,-5.84415 -21.8443,-11.0112 -29.8444,-15.8398 -7.8219,-4.82855 -13.8264,-7.16265 -17.6572,-7.16265 -2.67263,0 -5.00673,0.659249 -6.84193,1.99556 -1.99556,1.17596 -3.67041,3.17152 -5.16709,5.84415 -1.49667,2.49446 -2.49446,5.82633 -3.17152,9.83528 -0.659249,4.15149 -0.997782,8.49897 -0.997782,13.4879 0,8.00007 0.498891,14.5035 1.67485,19.1717 1.15814,4.66819 3.99113,9.15821 8.33861,13.3275 4.32966,4.1693 11.9912,9.17603 22.6639,15.0024 10.6549,5.66598 23.1628,10.9934 37.1674,15.8398 13.8264,4.66819 29.1673,8.65932 45.8267,11.8308 16.499,3.17152 33.3366,4.66819 50.1742,4.66819 31.4836,0 58.3168,-3.51005 80.4996,-10.6727 22.165,-7.16265 39.9826,-17.8354 53.6664,-31.6618 13.6661,-13.8442 23.4835,-31.0025 29.6662,-51.5105 6.16487,-20.4902 9.31857,-44.4904 9.31857,-71.8225l0 -296.662zm-80.0007 201.32l-68.8291 0c-22.0047,0 -41.1585,-1.81739 -57.4972,-5.66598 -16.1605,-3.6526 -29.6662,-9.31857 -40.4993,-16.6594 -10.6727,-7.34083 -18.4946,-16.0001 -23.6617,-26.3343 -5.00673,-10.3342 -7.50118,-22.165 -7.50118,-35.4925 0,-22.8421 7.16265,-40.9982 21.6661,-54.5038 14.5035,-13.5057 34.6729,-20.3298 60.8291,-20.3298 21.0069,0 40.6596,5.32744 58.6732,16.1605 17.9957,10.6727 36.9892,27.1717 56.8201,49.3368l0 93.4886z"/>
   <glyph unicode="в" horiz-adv-x="478" d="M435.995 138.674c0,-23.1806 -4.32966,-43.849 -13.1672,-61.8447 -8.8375,-18.1561 -21.8265,-33.1584 -39.1629,-45.4882 -17.1761,-12.1694 -38.6641,-21.5058 -64.3391,-27.8488 -25.8354,-6.32523 -55.8223,-9.49675 -89.9964,-9.49675 -10.6727,0 -21.1672,0 -31.1629,0.178175 -10.1738,0.160358 -20.0091,0.498891 -29.3277,0.997782 -9.51457,0.498891 -18.8331,1.15814 -28.1695,1.83521 -9.17603,0.498891 -18.5124,1.3185 -27.5103,2.3341 -13.1672,1.65703 -22.6639,5.98669 -28.8288,12.989 -6.16487,7.00229 -9.33639,17.3365 -9.33639,31.0025l0 378.338c0,13.3275 3.01116,23.6617 8.99786,30.8243 6.00451,7.16265 15.3409,11.332 27.6706,12.6683 8.49897,0.997782 17.4968,1.83521 27.1717,2.49446 9.49675,0.498891 19.332,1.17596 29.5058,1.67485 10.156,0.498891 20.4902,0.837424 31.3232,1.15814 10.6727,0.338533 21.5058,0.498891 32.6595,0.498891 31.6796,0 59.0117,-2.65481 82.0141,-7.8219 23.1628,-5.16709 42.3345,-12.8286 57.6576,-22.8421 15.3409,-10.156 26.6729,-22.5035 33.9959,-37.1674 7.34083,-14.6638 11.0112,-31.3232 11.0112,-50.1564 0,-24.6773 -6.66376,-45.8445 -19.8309,-63.5017 -13.1672,-17.4968 -32.6774,-30.0047 -58.3346,-37.5059 32.1607,-6.82412 56.4994,-19.9913 72.8203,-39.5015 16.1783,-19.6527 24.3388,-44.1519 24.3388,-73.8181zm-96.9987 203.815c0,10.6727 -1.99556,20.1695 -5.82633,28.6684 -4.00895,8.33861 -10.3342,15.5013 -19.332,21.3454 -9.01567,5.82633 -20.6683,10.156 -34.8333,13.1672 -14.1649,2.83299 -31.341,4.32966 -51.6709,4.32966 -15.3409,0 -29.3277,-0.338533 -41.9959,-1.17596 -12.8464,-0.819607 -23.5013,-1.83521 -32.3388,-2.65481l0 -136.179 82.1567 0c33.6751,0 59.3502,6.18269 77.1678,18.6728 17.8354,12.5079 26.6729,30.5036 26.6729,53.8268zm14.0046 -204.991c0,13.0068 -2.3341,24.4991 -6.84193,34.3344 -4.49002,9.99564 -11.8308,18.1739 -21.6661,24.6595 -9.99564,6.5034 -22.6639,11.332 -38.1652,14.6817 -15.3231,3.1537 -33.6573,4.82855 -54.8246,4.82855l-78.5041 0 0 -155.672c6.16487,-0.997782 12.6683,-1.65703 19.332,-2.15592 6.66376,-0.516709 13.5057,-1.0156 20.508,-1.51449 6.98447,-0.498891 13.8264,-0.819607 20.8287,-1.15814 7.00229,-0.338533 13.5057,-0.498891 19.332,-0.498891 21.1672,0 39.1629,1.83521 54.1653,5.66598 15.0024,3.67041 27.3321,9.15821 37.3277,16.3387 9.83528,7.16265 17.1761,15.822 21.6661,25.9958 4.50784,10.3342 6.84193,21.8265 6.84193,34.4948z"/>
   <glyph unicode="л" horiz-adv-x="510" d="M435.995 12.1694c0,-2.67263 -0.659249,-4.82855 -1.99556,-6.66376 -1.33632,-1.67485 -3.33188,-3.33188 -6.34304,-4.66819 -2.83299,-1.17596 -7.00229,-2.17374 -12.1516,-2.83299 -5.16709,-0.677066 -11.6705,-0.997782 -19.5102,-0.997782 -8.16043,0 -14.8242,0.320716 -19.9913,0.997782 -5.16709,0.659249 -9.33639,1.65703 -12.5079,2.83299 -2.99335,1.33632 -5.16709,2.99335 -6.5034,4.66819 -1.33632,1.83521 -1.99556,3.99113 -1.99556,6.66376l0 383.825 -120.999 0c-5.16709,-51.6709 -11.4923,-97.6579 -18.8331,-137.997 -7.34083,-40.3389 -15.5013,-75.4929 -24.6595,-105.498 -9.17603,-29.8266 -19.5102,-55.1631 -30.8422,-75.6711 -11.332,-20.4902 -23.822,-36.9892 -37.3277,-49.4971 -13.6661,-12.4901 -28.3299,-21.5058 -44.1697,-26.9936 -15.6616,-5.50562 -32.6595,-8.33861 -50.4949,-8.33861 -3.01116,0 -5.50562,0.498891 -7.67936,1.49667 -1.99556,0.997782 -3.83077,2.67263 -5.14927,5.34526 -1.17596,2.49446 -2.17374,6.16487 -2.85081,10.9934 -0.659249,4.66819 -0.997782,10.6727 -0.997782,18.1561 0,7.83972 0.178175,14.1828 0.677066,19.0113 0.498891,4.82855 1.33632,8.8375 2.49446,11.6705 1.17596,2.99335 2.67263,4.82855 4.32966,5.82633 1.83521,0.997782 4.00895,1.49667 6.66376,1.49667 10.8331,0 21.0069,2.49446 30.8422,7.50118 9.65711,5.16709 18.8331,13.5057 27.3321,24.998 8.49897,11.5101 16.499,26.6729 24.0002,45.3456 7.34083,18.8331 14.1649,41.8178 20.508,69.1499 6.16487,27.3321 11.9912,59.3324 17.4968,96.0009 5.4878,36.5081 10.8331,78.6644 15.6616,126.166 0.659249,9.83528 2.99335,16.9979 7.16265,21.8443 4.00895,4.66819 9.83528,7.00229 17.3365,7.00229l225.659 0c7.67936,0 13.8442,-2.3341 18.1739,-7.18047 4.49002,-4.66819 6.66376,-11.8308 6.66376,-21.6661l0 -422.988z"/>
   <glyph unicode="о" horiz-adv-x="527" d="M482.998 237.169c0,-35.8311 -4.66819,-68.8291 -14.1649,-99.0121 -9.33639,-29.9869 -23.5013,-55.9827 -42.1741,-77.827 -18.655,-21.8265 -42.1563,-38.8244 -70.1655,-50.9938 -28.1695,-12.1694 -60.8291,-18.3342 -97.8361,-18.3342 -36.1518,0 -67.6532,5.32744 -94.4864,16.1605 -26.8332,10.6727 -49.1764,26.3343 -67.0118,46.8423 -17.8175,20.4902 -31.1629,45.4882 -40.0004,74.6555 -8.81968,29.3455 -13.1672,62.5039 -13.1672,99.6713 0,35.8311 4.66819,68.8291 13.8442,98.8339 9.33639,30.1651 23.3232,56.1609 41.9959,78.0052 18.6728,21.8265 41.9959,38.6641 70.0051,50.8334 27.9914,11.9912 60.6687,17.9957 97.9965,17.9957 36.1696,0 67.671,-5.34526 94.5042,-16.1783 26.8332,-10.6549 49.1586,-26.3165 66.9939,-46.8245 17.8354,-20.508 31.3232,-45.3278 40.3389,-74.6733 8.81968,-29.3277 13.3275,-62.3257 13.3275,-99.1546zm-84.0097 -5.16709c0,23.822 -2.15592,46.3256 -6.66376,67.4928 -4.32966,21.1672 -11.6527,39.6618 -21.8265,55.662 -9.99564,16.0001 -23.8399,28.6684 -41.1585,37.8444 -17.1761,9.33639 -38.8422,13.9868 -64.6777,13.9868 -23.822,0 -44.33,-4.15149 -61.4883,-12.6505 -17.1761,-8.49897 -31.1807,-20.508 -42.3345,-36.0092 -11.1716,-15.5013 -19.332,-33.8355 -24.6773,-55.0027 -5.4878,-21.1672 -8.16043,-44.33 -8.16043,-69.328 0,-24.1606 2.15592,-46.8245 6.66376,-67.9917 4.32966,-21.1672 11.6705,-39.6797 22.0047,-55.5016 10.3342,-15.6794 24.1606,-28.3299 41.3367,-37.5059 17.3186,-9.33639 38.9848,-14.0046 64.8202,-14.0046 23.5013,0 43.8311,4.1693 61.1676,12.6683 17.3365,8.49897 31.5014,20.3298 42.673,35.6707 11.1716,15.3409 19.332,33.6573 24.4991,54.8246 5.16709,21.1672 7.8219,44.5082 7.8219,69.8447z"/>
   <glyph unicode="р" horiz-adv-x="525" d="M478.989 239.165c0,-38.5037 -4.15149,-72.9985 -12.4901,-103.662 -8.17825,-30.5036 -20.3298,-56.4994 -36.5081,-77.8448 -16.0001,-21.3276 -35.9914,-37.8266 -59.6531,-49.3189 -23.6795,-11.5101 -50.8334,-17.3365 -81.3371,-17.3365 -13.0068,0 -24.998,1.33632 -36.0092,3.83077 -11.1538,2.67263 -21.8265,6.66376 -32.4992,12.3297 -10.4945,5.50562 -20.9891,12.5079 -31.3232,21.0069 -10.5123,8.33861 -21.5058,18.3342 -33.1763,29.6662l0 -220.171c0,-2.65481 -0.659249,-4.82855 -1.99556,-6.82412 -1.33632,-2.01338 -3.33188,-3.67041 -6.32523,-5.00673 -3.01116,-1.15814 -7.00229,-2.17374 -12.3476,-2.83299 -5.16709,-0.659249 -11.8308,-0.997782 -19.9913,-0.997782 -8.00007,0 -14.5035,0.338533 -19.6706,0.997782 -5.32744,0.659249 -9.49675,1.67485 -12.4901,2.83299 -3.17152,1.33632 -5.34526,2.99335 -6.5034,5.00673 -1.17596,1.99556 -1.67485,4.1693 -1.67485,6.82412l0 614.171c0,2.99335 0.498891,5.32744 1.49667,7.16265 1.0156,1.65703 3.01116,3.33188 5.84415,4.49002 2.99335,1.33632 6.66376,2.3341 11.332,2.83299 4.50784,0.516709 10.1738,0.677066 16.6594,0.677066 6.84193,0 12.5079,-0.160358 16.9979,-0.677066 4.34748,-0.498891 8.00007,-1.49667 11.0112,-2.65481 2.99335,-1.33632 4.98891,-3.01116 6.16487,-4.66819 1.15814,-1.83521 1.65703,-4.1693 1.65703,-7.16265l0 -58.8335c13.3453,13.6661 26.174,25.4969 38.5037,35.6529 12.3297,10.0135 24.8376,18.3342 37.3456,25.0158 12.4901,6.66376 25.3187,11.8308 38.4859,15.1627 13.1672,3.49224 27.0114,5.16709 41.6752,5.16709 31.8221,0 58.8335,-6.16487 81.3371,-18.5124 22.3254,-12.4901 40.6596,-29.3277 54.8246,-50.8156 14.1649,-21.5058 24.4991,-46.5038 31.0025,-75.0118 6.5034,-28.4902 9.65711,-58.6553 9.65711,-90.4953zm-83.9919 -9.33639c0,22.5035 -1.67485,44.33 -5.16709,65.3369 -3.33188,21.0069 -9.33639,39.6618 -17.4968,56.0005 -8.33861,16.3387 -19.5102,29.3277 -33.497,39.1629 -14.0046,9.83528 -31.5014,14.6638 -52.3301,14.6638 -10.5123,0 -20.6683,-1.49667 -30.8422,-4.66819 -9.99564,-3.1537 -20.3298,-8.00007 -30.8243,-14.6638 -10.3342,-6.66376 -21.3454,-15.5013 -32.6774,-26.4947 -11.332,-10.9934 -23.5013,-24.4991 -36.1696,-40.4993l0 -174.826c22.165,-27.1717 43.1719,-47.8401 63.0028,-62.3436 20.0091,-14.3253 40.8378,-21.5058 62.6643,-21.5058 20.1695,0 37.5059,4.84637 52.0094,14.6817 14.5035,9.81746 26.1561,22.8243 35.154,39.1629 9.01567,16.3209 15.5013,34.4948 19.8487,54.8246 4.15149,20.1695 6.32523,40.6774 6.32523,61.1676z"/>
  </font>
  <style type="text/css">
   <![CDATA[
    @font-face { font-family:"Calibri";font-variant:normal;font-weight:normal;src:url("#FontID0") format(svg)}
    .str1 {stroke-width:13.58;stroke-miterlimit:22.9256}
    .str0 {stroke:#52A8A3;stroke-width:37.58;stroke-miterlimit:22.9256}
    .str2 {stroke:#58658E;stroke-width:2.86;stroke-miterlimit:22.9256}
    .fil2 {fill:#58658E}
    .fil0 {fill:white}
    .fil1 {fill:#58658E;fill-rule:nonzero}
    .fnt0 {font-weight:normal;font-size:210.92px;font-family:'Calibri'}
   ]]>
  </style>
 </defs>
 <g id="Слой_x0020_1">
  <metadata id="CorelCorpID_0Corel-Layer"/>
  <path class="fil0 str0" d="M265.48 18.79l826.43 0c135.68,0 246.69,111.01 246.69,246.69l0 826.44c0,135.67 -111.01,246.68 -246.69,246.68l-826.43 0c-135.68,0 -246.69,-111.01 -246.69,-246.68l0 -826.44c0,-135.68 111.01,-246.69 246.69,-246.69z"/>
  <path class="fil1" d="M386.2 393.05c0.31,-1.11 0.85,-2.59 1.4,-4.13l0.17 -0.48c-21.55,11.76 -43.06,31.37 -64.93,45.13 -10.45,8.56 -34.79,27.87 -63.1,50.33l-33.1 26.27c-5.99,4.76 -11.22,8.97 -16.42,13.15 -24.76,19.9 -48.6,39.07 -69.4,50.92 -1.98,1.13 -3.9,2.28 -5.82,3.42 -5.01,2.99 -10.03,5.98 -15.16,8.21 -14.41,6.25 -27.76,6.22 -37.18,-15.51 -1.38,-3.18 -1.21,-7.05 0.04,-10.4 1.24,-3.34 3.66,-6.4 6.75,-7.95 8.72,-4.38 27.73,-4.42 35.61,-1.89 4.74,1.51 4.36,4.97 -1.52,6.17 -3.71,0.75 -7.28,1.18 -10.83,1.6 -13.97,1.63 -14.79,5.27 -13.94,7.98 0.86,2.76 3.83,7.15 9.74,7.36 5.22,0.19 13.12,-3.41 18.47,-6.6 26.42,-15.73 52.25,-32.83 76.19,-52.08 5.69,-4.57 11.44,-9.19 16.46,-13.19l33.1 -26.27c28.01,-22.22 52.1,-41.33 62.98,-50.24 24.53,-17.43 47.14,-41 75.88,-49.13 5.2,-1.18 7.85,1.01 8.82,5.26l0 0 0 0.02c0.78,3.44 -2.34,5.98 -4.29,9.9 -2.35,4.7 -13.31,14.25 -9.92,2.15zm-3 11.07c2.4,-1.97 5.94,-1.62 7.91,0.77 1.97,2.4 1.62,5.94 -0.77,7.9 -4.98,4.1 -8.99,7.34 -13.01,10.58 -8.7,7.03 -17.42,14.06 -25.61,21.25 -8.41,7.38 -16.8,15.29 -25.18,23.18 -9.92,9.34 -19.84,18.68 -30.23,27.55 -21.93,18.72 -45.33,35.48 -65.96,55.65 -2.75,2.68 -6.34,4.03 0.78,8.85 -2.42,1.95 -20.49,3.12 -22.44,0.7 -1.95,-2.41 -0.52,-13.07 1.89,-15.02 25.24,-20.39 53.21,-37.21 78.42,-58.73 10.21,-8.72 20.03,-17.96 29.83,-27.19 8.33,-7.84 16.66,-15.69 25.49,-23.44 8.6,-7.55 16.25,-16.99 24.93,-23.99 4.64,-3.75 10.34,-5.08 13.95,-8.06zm67.65 -5.4c2.31,-2.07 5.86,-1.87 7.92,0.44 2.07,2.31 0.14,12.97 -2.16,15.04 -13.58,12.17 -17.67,10.23 -24.1,15.97 -17.61,15.69 -35.22,31.39 -52.33,47.02 -16.13,14.73 -32.17,29.62 -48.19,44.55 8.24,-0.31 16.46,-0.77 24.68,-1.38 26.54,-1.99 52.99,-5.67 80.41,-11.73 1.7,-0.38 3.4,-0.76 5.08,-1.16l0.82 -0.78 0.01 0.01c25.71,-24.31 51.1,-47.79 63.35,-58.11 12.75,-10.72 26.05,-20.82 39.35,-30.91 6.3,-4.78 12.59,-9.55 19.63,-15.04 2.45,-1.91 5.98,-1.47 7.89,0.97 1.91,2.44 1.9,9.79 -0.54,11.7 -6,4.67 -13.33,6.09 -20.2,11.31 -13.13,9.96 -26.27,19.94 -38.9,30.56 -9.92,8.36 -28.49,25.37 -48.81,44.43 4.05,-1.14 7.76,-2.2 10.99,-3.14l0.01 0 -0.01 -0.01c9.71,-2.8 15.95,-4.61 18.72,-2.06 2.66,2.66 2.85,5.31 0.27,8.16l-0.03 0.03 0.01 0.01c-3.27,3.56 -8.89,4.53 -12.67,7.45 -6.38,4.94 -14.2,13.45 -20.51,19.2 -9.39,8.53 -18.06,17.51 -26.58,26.98 -8.59,9.55 -12.27,17.42 -21.12,28.01 -2,2.39 -10.31,4.87 -12.69,2.88 -2.38,-2 -2.69,-5.55 -0.7,-7.93 8.96,-10.71 17.48,-20.86 26.14,-30.49 8.74,-9.71 17.66,-18.95 27.37,-27.77 4.1,-3.73 8.67,-7.06 13.3,-10.37 -5.93,1.66 -12.57,3.44 -19.54,5.13 -29.44,27.89 -58.64,56.22 -68.18,66.25 -6.49,6.83 -12.71,4.97 -18.95,-0.96 -3.4,-3.24 -6.68,-7.82 -10.06,-12.54 -4.33,-6.07 -8.87,-12.42 -12.96,-14.82 -8.82,-5.16 -18.94,-9.27 -28.51,-12.51l-20.88 19.42c-2.27,2.12 -5.83,1.99 -7.95,-0.28 -2.11,-2.27 -1.99,-5.84 0.29,-7.95l16.14 -15.02c-7.46,-2.1 -13.92,-3.61 -18.22,-4.61 -6.38,-1.49 -10.14,-2.38 -10.06,-7.12l0 -0.12 0 0c0.14,-3.89 2.5,-5.65 7.45,-5.52 13.27,0.35 26.28,0.47 39.18,0.27 19.12,-17.83 38.26,-35.66 57.6,-53.32 17.53,-16.02 34.98,-31.57 52.41,-47.1 10.79,-9.62 22.22,-19.8 25.83,-23.04zm-131.32 134.63l-0.71 0.67 -0.47 0.44c8.43,3.1 17.07,6.89 24.9,11.48 7.42,4.34 15.24,9.94 20.07,16.93 1.24,1.78 6.82,14.05 9.9,10.8 8.18,-8.61 28.71,-27.88 53.33,-51.37 -23.49,4.63 -46.29,7.59 -69.04,9.29 -12.6,0.94 -25.22,1.5 -37.98,1.76zm159.04 20.95c-2.49,0.2 -4.9,-1.29 -5.76,-3.75 -1.01,-2.93 0.53,-6.14 3.46,-7.16l11.04 -3.88c8.88,-9.96 27.14,-20.25 44.47,-29.62 14.58,-7.89 28.39,-16.12 40.09,-14.78 3.32,0.38 5.78,1.23 7.48,2.42 0.21,0.14 0.42,0.29 0.61,0.45 4.39,3.7 3.85,7.92 -0.12,12.37 -1.95,2.18 -5.11,4.53 -8.92,6.88 -13.8,8.51 -38.23,18.45 -41.19,19.44 -10.78,3.61 -22.08,7.6 -33.39,11.59l-2.4 0.84c-0.6,0.8 -1.21,1.68 -1.77,2.6l0.01 0.01c-7.05,17.04 23.38,10.44 32.73,9.21l0.46 -0.13c17.06,-4.55 33.64,-12.07 50.13,-19.54 8.38,-3.79 16.75,-7.59 25.08,-10.96l0.03 -0.02c2.82,-3.27 5.91,-6.53 9.17,-9.71 15.36,-14.99 34.77,-28.65 44.75,-30.98 4.34,-1.01 7.39,-1.11 9.37,-0.49 7.05,2.23 7.08,6.65 1.98,12.49 -1.85,2.12 -4.91,4.73 -8.69,7.55 -0.02,-0.01 -44.89,28.06 -49.84,30.45 -6.02,7.16 -10.06,13.74 -10.12,18.21 -0.02,1.58 2.19,2.73 5.05,3.55 4.61,1.32 10.47,1.57 14.9,1.53 9.51,-0.08 18.49,-1.17 27.37,-3.09 8.88,-1.91 17.67,-4.66 26.79,-8.03 1.22,-0.46 3.72,-1.76 7.17,-3.71 0.52,-2.83 1.73,-5.72 3.52,-8.65 3.6,-5.86 9.7,-11.95 17.12,-17.84 21.96,-17.43 56.82,-34.21 70.95,-37.99 2.58,-0.7 4.62,-0.75 6.15,-0.22 7.49,2.53 6.31,7.57 -1.26,14.27 -3.25,2.88 -8.12,6.61 -13.96,10.79 -19.53,13.99 -51.31,34.21 -70.5,45.55 1.07,1.38 3,2.73 5.93,4 2.46,1.07 10.64,-0.04 21.39,-2.36 14.13,-3.04 31.82,-8.23 47.32,-13.47l0 -0.01c7.02,-2.37 14.16,-5 21.25,-7.8 4.93,-6.25 11.46,-12.71 18.71,-18.84 24.6,-20.83 58.74,-37.66 68.77,-31.22 0,1.35 0.97,-0.17 2.76,2.82 2.49,4.16 0.92,8.8 -3.89,13.64 -3.12,3.14 -7.99,6.81 -14.14,10.74 -15.5,9.92 -39.84,21.99 -65.1,32.14 -3.66,5.07 -5.82,9.64 -5.7,13.14 0.09,2.61 2.09,4.87 6.66,6.45 5.25,1.81 18.78,-1.55 34.53,-6.95 20,-6.87 42.81,-16.98 57.96,-24.42 1.84,-3.08 4.08,-6.27 6.62,-9.51 19.1,-24.31 57.48,-53.31 69.46,-54.84 2.79,-0.36 5,-0.02 6.66,0.92 5.3,3 4.83,7.76 0.23,13.68 -2.25,2.9 -6,6.63 -10.63,10.78 -19.25,17.25 -55.01,42.67 -57.79,44.15 -1.87,1 -4.03,2.11 -6.41,3.31 -0.74,1.45 -1.33,2.82 -1.75,4.11 -0.9,2.76 -0.94,4.84 0.2,5.84 2.68,2.37 9.47,3.04 21.8,1.21 38.56,-7.99 66.63,-19.44 98.08,-39.23 25.23,-22.09 53.35,-46.62 76.02,-56.03 0.71,-0.3 1.41,-0.49 2.06,-0.59 0.52,-0.09 1.06,-0.11 1.62,-0.05 17.21,1.98 -12.35,27.03 -17.42,30.8 -15.08,11.2 -35.28,21.19 -55.16,34.57l-0.35 0.3c-7.66,6.7 -15.06,13.18 -21.5,18.57 -25.72,34.24 -97.37,73.02 -102.5,96.82 -0.36,3.08 -3.34,8.07 -6.42,7.71 -3.09,-0.37 -5.13,-5.95 -4.76,-9.03 2.8,-23.36 53.81,-56.16 94.58,-89.45 -6.27,2.14 -25.79,9.79 -32.22,11.27 -10.11,2.31 -20.31,3.98 -30.4,5.48 -15.98,2.38 -25.75,0.62 -30.87,-3.89 -3.58,-3.15 -5,-7.18 -4.68,-11.82 -14.56,6.76 -32.62,14.45 -48.78,19.99 -17.81,6.11 -33.84,9.67 -41.84,6.91 -9.7,-3.36 -13.97,-9.26 -14.23,-16.71 -0.08,-2.38 0.31,-4.88 1.11,-7.44 -2.99,1.08 -5.97,2.13 -8.94,3.13l0 -0.01 -0.01 0.01c-15.92,5.38 -34.08,10.71 -48.57,13.83 -12.83,2.76 -23.37,3.77 -28.22,1.66 -5.06,-2.2 -8.59,-4.94 -10.81,-8.11l-0.28 -0.38 -0.13 -0.21c-2.58,1.41 -4.48,2.36 -5.53,2.75 -9.57,3.54 -18.85,6.44 -28.34,8.49 -9.49,2.04 -19.2,3.22 -29.61,3.3l-0.02 0c-5.24,0.04 -12.25,-0.27 -18.05,-1.93 -7.54,-2.15 -13.31,-6.43 -13.2,-14.51 0.04,-3.02 1.02,-6.41 2.72,-10.02l-8.59 3.87c-16.92,7.67 -33.93,15.37 -51.85,20.16l-0.46 0.12c-14.47,3.86 -30.88,8.25 -44.73,-0.09l-0.28 -0.15c-0.54,-0.33 -1.01,-0.68 -1.43,-1.03 -3.89,-3.29 -4.65,-8.11 -3.61,-13.22l0 0c0.2,-0.99 0.48,-2 0.8,-3zm648.59 -28.11c-2.43,1.94 -10.47,7.43 -12.41,5 -1.93,-2.43 2.97,-11.87 5.4,-13.8 31.05,-24.81 70.33,-29.11 119,-37.87 11.44,-2.06 17.51,-2.35 28.91,-4.65 3.04,-0.6 10.85,-3.84 11.46,-0.8 0.6,3.04 -6.21,11.21 -9.25,11.82 -50.87,17.36 -101.55,13.88 -143.11,40.3z"/>
  <g transform="matrix(1.03974 0 0 1 352.417 -11563.1)">
   <text x="-213.5" y="12386.13"  class="fil2 str2 fnt0">Орлова Я.О.</text>
  </g>
 </g>
</svg>
