<?xml version="1.0" encoding="UTF-8"?>
<!DOCTYPE svg PUBLIC "-//W3C//DTD SVG 1.1//EN" "http://www.w3.org/Graphics/SVG/1.1/DTD/svg11.dtd">
<!-- Creator: CorelDRAW 2018 (64-Bit) -->
<svg xmlns="http://www.w3.org/2000/svg" xml:space="preserve" width="77px" height="60px" version="1.1" style="shape-rendering:geometricPrecision; text-rendering:geometricPrecision; image-rendering:optimizeQuality; fill-rule:evenodd; clip-rule:evenodd"
viewBox="0 0 1.73 1.35"
 xmlns:xlink="http://www.w3.org/1999/xlink">
 <defs>
  <style type="text/css">
   <![CDATA[
    .str0 {stroke:#52A8A3;stroke-width:0.05;stroke-miterlimit:22.9256}
    .fil0 {fill:#52A8A3}
   ]]>
  </style>
 </defs>
 <g id="Слой_x0020_1">
  <metadata id="CorelCorpID_0Corel-Layer"/>
  <path class="fil0 str0" d="M1.59 0.5l-0.28 -0.31c-0.06,-0.06 -0.15,-0.06 -0.21,0 -0.02,0.02 -0.03,0.04 -0.04,0.06 -0.05,-0.04 -0.14,-0.04 -0.19,0.01 -0.02,0.02 -0.03,0.04 -0.04,0.07 -0.05,-0.05 -0.13,-0.04 -0.19,0.01 -0.01,0.02 -0.03,0.04 -0.03,0.06l-0.14 -0.13c-0.05,-0.06 -0.15,-0.06 -0.2,0 -0.06,0.05 -0.06,0.15 0,0.2l0.51 0.52 -0.3 0.05c-0.09,0.01 -0.15,0.08 -0.15,0.17 0,0.06 0.05,0.11 0.12,0.11l0.71 0c0.11,0 0.22,-0.04 0.3,-0.12l0.12 -0.12c0.08,-0.08 0.12,-0.19 0.12,-0.3 0,-0.1 -0.04,-0.2 -0.11,-0.28zm-0.07 0.52l-0.12 0.12c-0.06,0.07 -0.15,0.1 -0.24,0.1l-0.71 0c-0.03,0 -0.04,-0.01 -0.04,-0.03 0,-0.05 0.03,-0.09 0.08,-0.1l0.38 -0.06c0.01,0 0.03,-0.01 0.03,-0.02 0,-0.02 0,-0.03 -0.01,-0.04l-0.57 -0.57c-0.03,-0.03 -0.03,-0.07 0,-0.1 0.01,-0.01 0.03,-0.02 0.05,-0.02 0.02,0 0.03,0.01 0.05,0.02l0.38 0.38c0.01,0.02 0.04,0.02 0.05,0 0.01,-0.01 0.01,-0.02 0.01,-0.03 0,-0.01 0,-0.02 -0.01,-0.02l-0.15 -0.16c-0.03,-0.03 -0.03,-0.07 0,-0.1 0.02,-0.02 0.07,-0.02 0.1,0l0.15 0.16c0.02,0.01 0.04,0.01 0.05,0 0.01,-0.01 0.02,-0.02 0.02,-0.03 0,-0.01 -0.01,-0.02 -0.02,-0.03l-0.07 -0.08c-0.03,-0.02 -0.03,-0.07 0,-0.09 0.02,-0.03 0.07,-0.03 0.09,0l0.08 0.08c0,0 0,0 0,0l0 0c0,0 0,0 0,0 0,0 0,0 0,0l0 0c0,0 0,0 0,0 0.02,0.01 0.04,0.01 0.06,0 0.01,-0.02 0.01,-0.04 0,-0.06l-0.01 0c-0.01,-0.01 -0.02,-0.03 -0.02,-0.05 0,-0.02 0.01,-0.04 0.02,-0.05 0.03,-0.03 0.07,-0.03 0.1,0l0.29 0.31c0.05,0.07 0.08,0.15 0.08,0.23 0,0.09 -0.03,0.18 -0.1,0.24z"/>
  <path class="fil0 str0" d="M0.68 0.23c-0.05,-0.12 -0.18,-0.2 -0.31,-0.2 -0.19,0 -0.34,0.15 -0.34,0.34 0,0.13 0.08,0.26 0.2,0.31 0,0 0.01,0 0.01,0 0.02,0 0.03,0 0.04,-0.02 0.01,-0.02 0,-0.04 -0.02,-0.05 -0.1,-0.04 -0.16,-0.14 -0.16,-0.24 0,-0.15 0.12,-0.27 0.27,-0.27 0.1,0 0.2,0.06 0.24,0.16 0.01,0.02 0.03,0.03 0.05,0.02 0.02,-0.01 0.03,-0.03 0.02,-0.05z"/>
 </g>
</svg>
