<?xml version="1.0" encoding="UTF-8"?>
<!DOCTYPE svg PUBLIC "-//W3C//DTD SVG 1.1//EN" "http://www.w3.org/Graphics/SVG/1.1/DTD/svg11.dtd">
<!-- Creator: CorelDRAW 2018 (64-Bit) -->
<svg xmlns="http://www.w3.org/2000/svg" xml:space="preserve" width="73px" height="69px" version="1.1" style="shape-rendering:geometricPrecision; text-rendering:geometricPrecision; image-rendering:optimizeQuality; fill-rule:evenodd; clip-rule:evenodd"
viewBox="0 0 1.54 1.48"
 xmlns:xlink="http://www.w3.org/1999/xlink">
 <defs>
  <style type="text/css">
   <![CDATA[
    .fil0 {fill:#52A8A3}
   ]]>
  </style>
 </defs>
 <g id="Слой_x0020_1">
  <metadata id="CorelCorpID_0Corel-Layer"/>
  <path class="fil0" d="M1.13 0.56l0.23 0.09 -0.19 0.53c-0.02,0.05 -0.12,0.2 -0.19,0.23l-0.01 0.05c-0.01,0.01 -0.02,0.02 -0.03,0.02 0,0 0,0 -0.01,-0.01 -0.01,0 -0.02,-0.02 -0.01,-0.03l0.01 -0.04c-0.03,-0.07 -0.01,-0.27 0.01,-0.31l0.19 -0.53zm0.34 -0.55c-0.07,-0.03 -0.14,0.02 -0.16,0.08l-0.14 0.38 0.23 0.09 0.14 -0.39c0.02,-0.04 -0.01,-0.14 -0.07,-0.16zm-0.42 0.53c0,0.01 0.01,0.01 0.02,0.01 0.02,0 0.04,-0.02 0.05,-0.04l0.15 -0.4c0.01,-0.03 -0.01,-0.06 -0.04,-0.07 -0.03,-0.01 -0.06,0 -0.07,0.03l-0.15 0.4c-0.01,0.03 0.01,0.06 0.04,0.07zm-0.24 0.75c-0.02,-0.01 -0.04,-0.03 -0.07,-0.04 -0.02,-0.02 -0.05,-0.02 -0.07,-0.02 0,0 0,0 0,0 -0.01,-0.03 -0.04,-0.05 -0.07,-0.05 -0.05,-0.01 -0.08,0.01 -0.11,0.02 0.01,-0.01 0.01,-0.02 0.01,-0.03 0.01,-0.04 0.02,-0.08 0.01,-0.11 0,-0.03 -0.03,-0.05 -0.05,-0.05 -0.07,0 -0.13,0.04 -0.18,0.07 -0.05,0.04 -0.09,0.06 -0.12,0.04 -0.04,-0.01 -0.05,-0.12 -0.03,-0.22 0.02,-0.09 0.05,-0.26 0.14,-0.34 0.03,-0.02 0.07,-0.05 0.1,-0.04 0.04,0.02 0.08,0.09 0.08,0.16 0.01,0.04 0.03,0.06 0.07,0.06 0.03,0 0.06,-0.03 0.05,-0.07 -0.01,-0.12 -0.07,-0.22 -0.15,-0.26 -0.05,-0.02 -0.13,-0.02 -0.23,0.06 -0.11,0.1 -0.15,0.26 -0.18,0.4 -0.01,0.08 -0.05,0.31 0.11,0.37 0.09,0.03 0.17,-0.02 0.23,-0.06 0.01,-0.01 0.02,-0.02 0.03,-0.02 -0.01,0.04 -0.02,0.09 0.01,0.13 0.04,0.06 0.09,0.06 0.16,0.02 0.01,0 0.01,-0.01 0.01,-0.01 0.01,0.02 0.02,0.03 0.04,0.04 0.03,0.01 0.05,0.01 0.07,0.01 0.01,0 0.02,0 0.02,0.01 0.02,0 0.02,0.01 0.03,0.02 0.01,0.01 0.03,0.02 0.04,0.03 0.01,0.01 0.02,0.01 0.03,0.01 0.02,0 0.04,-0.01 0.05,-0.02 0.02,-0.03 0.02,-0.07 -0.01,-0.09 -0.01,0 -0.02,-0.01 -0.02,-0.02z"/>
 </g>
</svg>
